The ConsortiumMetabolism Class • ramen
…
Returns the unique metabolite identifiers.

metabolites(cm_syn)
#> [1] "met2" "met8" "met1" "met4" "met6" "met5" "met7" "met3"

pathways()

Returns the pathway data.frame, which contains per-pathway summary
statistics including the number of species catalysing each pathway,
summed consumption and production fluxes, and effective diversity.

pw <- pathways(cm_syn)
pw[, c("consumed", "produced", "n_species")]
#> # A tibble: 24 × 3
#>    consumed produced n_species
#>    <chr>    <chr>        <dbl>
#>  1 met8     met2             2
#>  2 met8     met1             2
#>  3 met8     met6             1
#>  4 met4     met2             1
#>  5 met4     met1             1
#>  6 met4     met6             1
#>  7 met6     met5             2
#>  8 met6     met7             2
#>  9 met6     met8             2
#> 10 met6     met4             2
#> # ℹ 14 more rows
…
