The ConsortiumMetabolismSet Class • ramen
…
pathways(cms_syn, type = "pan-cons")
#> # A tibble: 4 × 5
#>   consumed produced c_ind_alig p_ind_alig n_cons
#>   <chr>    <chr>         <int>      <int>  <int>
#> 1 met7     met2              8          3      4
#> 2 met1     met5              1          6      4
#> 3 met1     met2              1          3      4
#> 4 met1     met8              1          9      4

Niche pathways

Pathways present in few consortia (bottom fraction).

pathways(cms_syn, type = "niche")
#> # A tibble: 32 × 5
#>    consumed produced c_ind_alig p_ind_alig n_cons
#>    <chr>    <chr>         <int>      <int>  <int>
#>  1 met2     met1              3          1      1
#>  2 met2     met7              3          8      1
#>  3 met2     met4              3          5      1
#>  4 met8     met1              9          1      1
#>  5 met4     met5              5          6      1
#>  6 met10    met4              2          5      1
#>  7 met10    met6              2          7      1
#>  8 met10    met2              2          3      1
#>  9 met10    met5              2          6      1
#> 10 met10    met1              2          1      1
#> # ℹ 22 more rows
Core pathways

Pathways catalysed by many species (top fraction).

pathways(cms_syn, type = "core")
#> # A tibble: 0 × 5
#> # ℹ 5 variables: consumed <chr>, produced <chr>, c_ind_alig <int>,
#> #   p_ind_alig <int>, n_species <int>

Auxiliary pathways

Pathways catalysed by few species (bottom fraction).

pathways(cms_syn, type = "aux")
#> # A tibble: 46 × 5
#>    consumed produced c_ind_alig p_ind_alig n_species
#>    <chr>    <chr>         <int>      <int>     <int>
#>  1 met2     met1              3          1         1
#>  2 met2     met7              3          8         1
#>  3 met2     met4              3          5         1
#>  4 met8     met1              9          1         1
#>  5 met4     met5              5          6         1
#>  6 met10    met4              2          5         1
#>  7 met10    met6              2          7         1
#>  8 met10    met2              2          3         1
#>  9 met10    met5              2          6         1
#> 10 met10    met1              2          1         1
#> # ℹ 36 more rows
…
