…
### Niche pathways

Pathways present in few consortia (bottom fraction).

``` r
pathways(cms_syn, type = "niche")
#> # A tibble: 32 × 4
#>    consumed produced n_species n_cons
#>    <chr>    <chr>        <int>  <int>
#>  1 met2     met1             1      1
#>  2 met2     met7             1      1
#>  3 met2     met4             1      1
#>  4 met8     met1             1      1
#>  5 met4     met5             1      1
#>  6 met10    met4             1      1
#>  7 met10    met6             1      1
#>  8 met10    met2             1      1
#>  9 met10    met5             1      1
#> 10 met10    met1             1      1
#> # ℹ 22 more rows
```
…
Pathways catalysed by many species (top fraction).

``` r
pathways(cms_syn, type = "core")
#> # A tibble: 0 × 4
#> # ℹ 4 variables: consumed <chr>, produced <chr>, n_species <int>, n_cons <int>
```

### Auxiliary pathways

Pathways catalysed by few species (bottom fraction).

``` r
pathways(cms_syn, type = "aux")
#> # A tibble: 46 × 4
#>    consumed produced n_species n_cons
#>    <chr>    <chr>        <int>  <int>
#>  1 met2     met1             1      1
#>  2 met2     met7             1      1
#>  3 met2     met4             1      1
#>  4 met8     met1             1      1
#>  5 met4     met5             1      1
#>  6 met10    met4             1      1
#>  7 met10    met6             1      1
#>  8 met10    met2             1      1
#>  9 met10    met5             1      1
#> 10 met10    met1             1      1
#> # ℹ 36 more rows
```
…
