…
cms <- ConsortiumMetabolismSet(cm_list, name = "MiSoSoup_20")
cms
```

### Species across the set

[`species()`](https://admarhi.github.io/ramen/reference/species.md)
returns all species with the number of distinct pathways each catalyses:

``` r
species(cms)
#> # A tibble: 23 × 2
#>    species n_pathways
#>    <chr>        <int>
#>  1 A1R12          302
#>  2 D2M19          132
#>  3 E3M18          108
#>  4 F3R08           99
#>  5 m_3C02          96
#>  6 C2R02           91
#>  7 m_3D05          91
#>  8 C3R12           88
#>  9 I3M07           88
#> 10 B3M02           88
#> # ℹ 13 more rows
```
…
